mrstd.vcd
$date
  Sun Jun 12 22:39:28 2011
$end
$version
  GHDL v0
$end
$timescale
  1 fs
$end
$var reg 32 ! tb_dadress[31:0] $end
$var reg 32 " tb_ddata[31:0] $end
$var reg 32 # tb_iadress[31:0] $end
$var reg 32 $ tb_idata[31:0] $end
$var reg 32 % tb_i_cpu_address[31:0] $end
$var reg 32 & tb_d_cpu_address[31:0] $end
$var reg 32 ' tb_data_cpu[31:0] $end
$var reg 32 ( tb_add[31:0] $end
$var reg 32 ) tb_data[31:0] $end
$var reg 1 * tb_dce_n $end
$var reg 1 + tb_dwe_n $end
$var reg 1 , tb_doe_n $end
$var reg 1 - tb_ice_n $end
$var reg 1 . tb_iwe_n $end
$var reg 1 / tb_ioe_n $end
$var reg 1 0 tb_ck $end
$var reg 1 1 tb_rst $end
$var reg 1 2 tb_rstcpu $end
$var reg 1 3 tb_go_i $end
$var reg 1 4 tb_go_d $end
$var reg 1 5 tb_ce $end
$var reg 1 6 tb_rw $end
$var reg 1 7 tb_bw $end
$scope module data_mem $end
$var reg 1 8 ram_ce_n $end
$var reg 1 9 ram_we_n $end
$var reg 1 : ram_oe_n $end
$var reg 1 ; ram_bw $end
$var reg 32 < ram_address[31:0] $end
$var reg 32 = ram_data[31:0] $end
$comment ram is not handled $end
$var reg 32 > tmp_address[31:0] $end
$upscope $end
$scope module instr_mem $end
$var reg 1 ? ram_ce_n $end
$var reg 1 @ ram_we_n $end
$var reg 1 A ram_oe_n $end
$var reg 1 B ram_bw $end
$var reg 32 C ram_address[31:0] $end
$var reg 32 D ram_data[31:0] $end
$comment ram is not handled $end
$var reg 32 E tmp_address[31:0] $end
$upscope $end
$scope module tb_cpu $end
$var reg 1 F g_clock $end
$var reg 1 G g_reset $end
$var reg 1 H g_ce $end
$var reg 1 I g_rw $end
$var reg 1 J g_bw $end
$var reg 32 K g_i_address[31:0] $end
$var reg 32 L g_d_address[31:0] $end
$var reg 32 M g_instruction[31:0] $end
$var reg 32 N g_data[31:0] $end
$var reg 32 O ir[31:0] $end
$comment uins is not handled $end
$scope module dp $end
$var reg 1 P dp_ck $end
$var reg 1 Q dp_rst $end
$var reg 32 R dp_i_address[31:0] $end
$var reg 32 S dp_instruction[31:0] $end
$var reg 32 T dp_d_address[31:0] $end
$var reg 32 U dp_data[31:0] $end
$comment dp_uins is not handled $end
$var reg 32 V dp_ir_out[31:0] $end
$var reg 32 W dp_incpc[31:0] $end
$var reg 32 X dp_ent_pc[31:0] $end
$var reg 32 Y dp_pc_mais_offset[31:0] $end
$var reg 32 Z dp_pc[31:0] $end
$var reg 32 [ dp_result[31:0] $end
$var reg 32 \ dp_r1[31:0] $end
$var reg 32 ] dp_r2[31:0] $end
$var reg 32 ^ dp_ext32[31:0] $end
$var reg 32 _ dp_op2[31:0] $end
$var reg 32 ` dp_reg_dest[31:0] $end
$var reg 5 a dp_add[4:0] $end
$var reg 1 b dp_instr $end
$var reg 1 c dp_zero $end
$scope module rpc $end
$var reg 1 d ck $end
$var reg 1 e rst $end
$var reg 1 f ce $end
$var reg 32 g d[31:0] $end
$var reg 32 h q[31:0] $end
$upscope $end
$scope module regs $end
$var reg 1 i ck $end
$var reg 1 j rst $end
$var reg 1 k wreg $end
$var reg 5 l adrs[4:0] $end
$var reg 5 m adrt[4:0] $end
$var reg 5 n adrd[4:0] $end
$var reg 32 o rd[31:0] $end
$var reg 32 p r1[31:0] $end
$var reg 32 q r2[31:0] $end
$comment reg is not handled $end
$var reg 32 r wen[31:0] $end
$scope module g1(0) $end
$scope module rx $end
$var reg 1 s ck $end
$var reg 1 t rst $end
$var reg 1 u ce $end
$var reg 32 v d[31:0] $end
$var reg 32 w q[31:0] $end
$upscope $end
$upscope $end
$scope module g1(1) $end
$scope module rx $end
$var reg 1 x ck $end
$var reg 1 y rst $end
$var reg 1 z ce $end
$var reg 32 { d[31:0] $end
$var reg 32 | q[31:0] $end
$upscope $end
$upscope $end
$scope module g1(2) $end
$scope module rx $end
$var reg 1 } ck $end
$var reg 1 !" rst $end
$var reg 1 "" ce $end
$var reg 32 #" d[31:0] $end
$var reg 32 $" q[31:0] $end
$upscope $end
$upscope $end
$scope module g1(3) $end
$scope module rx $end
$var reg 1 %" ck $end
$var reg 1 &" rst $end
$var reg 1 '" ce $end
$var reg 32 (" d[31:0] $end
$var reg 32 )" q[31:0] $end
$upscope $end
$upscope $end
$scope module g1(4) $end
$scope module rx $end
$var reg 1 *" ck $end
$var reg 1 +" rst $end
$var reg 1 ," ce $end
$var reg 32 -" d[31:0] $end
$var reg 32 ." q[31:0] $end
$upscope $end
$upscope $end
$scope module g1(5) $end
$scope module rx $end
$var reg 1 /" ck $end
$var reg 1 0" rst $end
$var reg 1 1" ce $end
$var reg 32 2" d[31:0] $end
$var reg 32 3" q[31:0] $end
$upscope $end
$upscope $end
$scope module g1(6) $end
$scope module rx $end
$var reg 1 4" ck $end
$var reg 1 5" rst $end
$var reg 1 6" ce $end
$var reg 32 7" d[31:0] $end
$var reg 32 8" q[31:0] $end
$upscope $end
$upscope $end
$scope module g1(7) $end
$scope module rx $end
$var reg 1 9" ck $end
$var reg 1 :" rst $end
$var reg 1 ;" ce $end
$var reg 32 <" d[31:0] $end
$var reg 32 =" q[31:0] $end
$upscope $end
$upscope $end
$scope module g1(8) $end
$scope module rx $end
$var reg 1 >" ck $end
$var reg 1 ?" rst $end
$var reg 1 @" ce $end
$var reg 32 A" d[31:0] $end
$var reg 32 B" q[31:0] $end
$upscope $end
$upscope $end
$scope module g1(9) $end
$scope module rx $end
$var reg 1 C" ck $end
$var reg 1 D" rst $end
$var reg 1 E" ce $end
$var reg 32 F" d[31:0] $end
$var reg 32 G" q[31:0] $end
$upscope $end
$upscope $end
$scope module g1(10) $end
$scope module rx $end
$var reg 1 H" ck $end
$var reg 1 I" rst $end
$var reg 1 J" ce $end
$var reg 32 K" d[31:0] $end
$var reg 32 L" q[31:0] $end
$upscope $end
$upscope $end
$scope module g1(11) $end
$scope module rx $end
$var reg 1 M" ck $end
$var reg 1 N" rst $end
$var reg 1 O" ce $end
$var reg 32 P" d[31:0] $end
$var reg 32 Q" q[31:0] $end
$upscope $end
$upscope $end
$scope module g1(12) $end
$scope module rx $end
$var reg 1 R" ck $end
$var reg 1 S" rst $end
$var reg 1 T" ce $end
$var reg 32 U" d[31:0] $end
$var reg 32 V" q[31:0] $end
$upscope $end
$upscope $end
$scope module g1(13) $end
$scope module rx $end
$var reg 1 W" ck $end
$var reg 1 X" rst $end
$var reg 1 Y" ce $end
$var reg 32 Z" d[31:0] $end
$var reg 32 [" q[31:0] $end
$upscope $end
$upscope $end
$scope module g1(14) $end
$scope module rx $end
$var reg 1 \" ck $end
$var reg 1 ]" rst $end
$var reg 1 ^" ce $end
$var reg 32 _" d[31:0] $end
$var reg 32 `" q[31:0] $end
$upscope $end
$upscope $end
$scope module g1(15) $end
$scope module rx $end
$var reg 1 a" ck $end
$var reg 1 b" rst $end
$var reg 1 c" ce $end
$var reg 32 d" d[31:0] $end
$var reg 32 e" q[31:0] $end
$upscope $end
$upscope $end
$scope module g1(16) $end
$scope module rx $end
$var reg 1 f" ck $end
$var reg 1 g" rst $end
$var reg 1 h" ce $end
$var reg 32 i" d[31:0] $end
$var reg 32 j" q[31:0] $end
$upscope $end
$upscope $end
$scope module g1(17) $end
$scope module rx $end
$var reg 1 k" ck $end
$var reg 1 l" rst $end
$var reg 1 m" ce $end
$var reg 32 n" d[31:0] $end
$var reg 32 o" q[31:0] $end
$upscope $end
$upscope $end
$scope module g1(18) $end
$scope module rx $end
$var reg 1 p" ck $end
$var reg 1 q" rst $end
$var reg 1 r" ce $end
$var reg 32 s" d[31:0] $end
$var reg 32 t" q[31:0] $end
$upscope $end
$upscope $end
$scope module g1(19) $end
$scope module rx $end
$var reg 1 u" ck $end
$var reg 1 v" rst $end
$var reg 1 w" ce $end
$var reg 32 x" d[31:0] $end
$var reg 32 y" q[31:0] $end
$upscope $end
$upscope $end
$scope module g1(20) $end
$scope module rx $end
$var reg 1 z" ck $end
$var reg 1 {" rst $end
$var reg 1 |" ce $end
$var reg 32 }" d[31:0] $end
$var reg 32 !# q[31:0] $end
$upscope $end
$upscope $end
$scope module g1(21) $end
$scope module rx $end
$var reg 1 "# ck $end
$var reg 1 ## rst $end
$var reg 1 $# ce $end
$var reg 32 %# d[31:0] $end
$var reg 32 &# q[31:0] $end
$upscope $end
$upscope $end
$scope module g1(22) $end
$scope module rx $end
$var reg 1 '# ck $end
$var reg 1 (# rst $end
$var reg 1 )# ce $end
$var reg 32 *# d[31:0] $end
$var reg 32 +# q[31:0] $end
$upscope $end
$upscope $end
$scope module g1(23) $end
$scope module rx $end
$var reg 1 ,# ck $end
$var reg 1 -# rst $end
$var reg 1 .# ce $end
$var reg 32 /# d[31:0] $end
$var reg 32 0# q[31:0] $end
$upscope $end
$upscope $end
$scope module g1(24) $end
$scope module rx $end
$var reg 1 1# ck $end
$var reg 1 2# rst $end
$var reg 1 3# ce $end
$var reg 32 4# d[31:0] $end
$var reg 32 5# q[31:0] $end
$upscope $end
$upscope $end
$scope module g1(25) $end
$scope module rx $end
$var reg 1 6# ck $end
$var reg 1 7# rst $end
$var reg 1 8# ce $end
$var reg 32 9# d[31:0] $end
$var reg 32 :# q[31:0] $end
$upscope $end
$upscope $end
$scope module g1(26) $end
$scope module rx $end
$var reg 1 ;# ck $end
$var reg 1 <# rst $end
$var reg 1 =# ce $end
$var reg 32 ># d[31:0] $end
$var reg 32 ?# q[31:0] $end
$upscope $end
$upscope $end
$scope module g1(27) $end
$scope module rx $end
$var reg 1 @# ck $end
$var reg 1 A# rst $end
$var reg 1 B# ce $end
$var reg 32 C# d[31:0] $end
$var reg 32 D# q[31:0] $end
$upscope $end
$upscope $end
$scope module g1(28) $end
$scope module rx $end
$var reg 1 E# ck $end
$var reg 1 F# rst $end
$var reg 1 G# ce $end
$var reg 32 H# d[31:0] $end
$var reg 32 I# q[31:0] $end
$upscope $end
$upscope $end
$scope module g1(29) $end
$scope module rx $end
$var reg 1 J# ck $end
$var reg 1 K# rst $end
$var reg 1 L# ce $end
$var reg 32 M# d[31:0] $end
$var reg 32 N# q[31:0] $end
$upscope $end
$upscope $end
$scope module g1(30) $end
$scope module rx $end
$var reg 1 O# ck $end
$var reg 1 P# rst $end
$var reg 1 Q# ce $end
$var reg 32 R# d[31:0] $end
$var reg 32 S# q[31:0] $end
$upscope $end
$upscope $end
$scope module g1(31) $end
$scope module rx $end
$var reg 1 T# ck $end
$var reg 1 U# rst $end
$var reg 1 V# ce $end
$var reg 32 W# d[31:0] $end
$var reg 32 X# q[31:0] $end
$upscope $end
$upscope $end
$upscope $end
$scope module alu1 $end
$var reg 32 Y# alu_op1[31:0] $end
$var reg 32 Z# alu_op2[31:0] $end
$var reg 32 [# alu_outalu[31:0] $end
$var reg 1 \# alu_zero $end
$comment alu_op_alu is not handled $end
$var reg 64 ]# alu_int_alu[63:0] $end
$upscope $end
$upscope $end
$scope module ct $end
$var reg 1 ^# ct_ck $end
$var reg 1 _# ct_rst $end
$comment ct_uins is not handled $end
$var reg 32 `# ct_ir[31:0] $end
$comment i is not handled $end
$upscope $end
$upscope $end
$enddefinitions $end
#0
b00000000010000000000000000000000 !
bUUUUUUUUUUUUUUUUUUUUUUUUUUUUUUUU "
b00000000010000000000000000000000 #
b10001111101001000000000000000000 $
b00000000010000000000000000000000 %
b00000000000000000000000000000000 &
bUUUUUUUUUUUUUUUUUUUUUUUUUUUUUUUU '
b00000000010000000000000000000000 (
b10001111101001000000000000000000 )
0*
1+
0,
0-
1.
1/
00
11
12
03
04
15
16
17
08
19
0:
1;
b00000000010000000000000000000000 <
bUUUUUUUUUUUUUUUUUUUUUUUUUUUUUUUU =
bUUUUUUUUUUUUUUUUUUUUUUUUUUUUUUUU >
0?
1@
1A
1B
b00000000010000000000000000000000 C
b10001111101001000000000000000000 D
bUUUUUUUUUUUUUUUUUUUUUUUUUUUUUUUU E
0F
1G
1H
1I
1J
b00000000010000000000000000000000 K
b00000000000000000000000000000000 L
b10001111101001000000000000000000 M
bUUUUUUUUUUUUUUUUUUUUUUUUUUUUUUUU N
b10001111101001000000000000000000 O
0P
1Q
b00000000010000000000000000000000 R
b10001111101001000000000000000000 S
b00000000000000000000000000000000 T
bUUUUUUUUUUUUUUUUUUUUUUUUUUUUUUUU U
b10001111101001000000000000000000 V
b00000000010000000000000000000100 W
bUUUUUUUUUUUUUUUUUUUUUUUUUUUUUUUU X
bUUUUUUUUUUUUUUUUUUUUUUUUUUUUUUUU Y
b00000000010000000000000000000000 Z
b00000000000000000000000000000000 [
b00000000000000000000000000000000 \
b00000000000000000000000000000000 ]
b00000000000000000000000000000000 ^
b00000000000000000000000000000000 _
bUUUUUUUUUUUUUUUUUUUUUUUUUUUUUUUU `
b00100 a
0b
1c
0d
1e
1f
b00000000010000000000000000000100 g
b00000000010000000000000000000000 h
0i
1j
1k
b11101 l
b00100 m
b00100 n
bUUUUUUUUUUUUUUUUUUUUUUUUUUUUUUUU o
b00000000000000000000000000000000 p
b00000000000000000000000000000000 q
b00000000000000000000000000010000 r
0s
1t
0u
bUUUUUUUUUUUUUUUUUUUUUUUUUUUUUUUU v
b00000000000000000000000000000000 w
0x
1y
0z
bUUUUUUUUUUUUUUUUUUUUUUUUUUUUUUUU {
b00000000000000000000000000000000 |
0}
1!"
0""
bUUUUUUUUUUUUUUUUUUUUUUUUUUUUUUUU #"
b00000000000000000000000000000000 $"
0%"
1&"
0'"
bUUUUUUUUUUUUUUUUUUUUUUUUUUUUUUUU ("
b00000000000000000000000000000000 )"
0*"
1+"
1,"
bUUUUUUUUUUUUUUUUUUUUUUUUUUUUUUUU -"
b00000000000000000000000000000000 ."
0/"
10"
01"
bUUUUUUUUUUUUUUUUUUUUUUUUUUUUUUUU 2"
b00000000000000000000000000000000 3"
04"
15"
06"
bUUUUUUUUUUUUUUUUUUUUUUUUUUUUUUUU 7"
b00000000000000000000000000000000 8"
09"
1:"
0;"
bUUUUUUUUUUUUUUUUUUUUUUUUUUUUUUUU <"
b00000000000000000000000000000000 ="
0>"
1?"
0@"
bUUUUUUUUUUUUUUUUUUUUUUUUUUUUUUUU A"
b00000000000000000000000000000000 B"
0C"
1D"
0E"
bUUUUUUUUUUUUUUUUUUUUUUUUUUUUUUUU F"
b00000000000000000000000000000000 G"
0H"
1I"
0J"
bUUUUUUUUUUUUUUUUUUUUUUUUUUUUUUUU K"
b00000000000000000000000000000000 L"
0M"
1N"
0O"
bUUUUUUUUUUUUUUUUUUUUUUUUUUUUUUUU P"
b00000000000000000000000000000000 Q"
0R"
1S"
0T"
bUUUUUUUUUUUUUUUUUUUUUUUUUUUUUUUU U"
b00000000000000000000000000000000 V"
0W"
1X"
0Y"
bUUUUUUUUUUUUUUUUUUUUUUUUUUUUUUUU Z"
b00000000000000000000000000000000 ["
0\"
1]"
0^"
bUUUUUUUUUUUUUUUUUUUUUUUUUUUUUUUU _"
b00000000000000000000000000000000 `"
0a"
1b"
0c"
bUUUUUUUUUUUUUUUUUUUUUUUUUUUUUUUU d"
b00000000000000000000000000000000 e"
0f"
1g"
0h"
bUUUUUUUUUUUUUUUUUUUUUUUUUUUUUUUU i"
b00000000000000000000000000000000 j"
0k"
1l"
0m"
bUUUUUUUUUUUUUUUUUUUUUUUUUUUUUUUU n"
b00000000000000000000000000000000 o"
0p"
1q"
0r"
bUUUUUUUUUUUUUUUUUUUUUUUUUUUUUUUU s"
b00000000000000000000000000000000 t"
0u"
1v"
0w"
bUUUUUUUUUUUUUUUUUUUUUUUUUUUUUUUU x"
b00000000000000000000000000000000 y"
0z"
1{"
0|"
bUUUUUUUUUUUUUUUUUUUUUUUUUUUUUUUU }"
b00000000000000000000000000000000 !#
0"#
1##
0$#
bUUUUUUUUUUUUUUUUUUUUUUUUUUUUUUUU %#
b00000000000000000000000000000000 &#
0'#
1(#
0)#
bUUUUUUUUUUUUUUUUUUUUUUUUUUUUUUUU *#
b00000000000000000000000000000000 +#
0,#
1-#
0.#
bUUUUUUUUUUUUUUUUUUUUUUUUUUUUUUUU /#
b00000000000000000000000000000000 0#
01#
12#
03#
bUUUUUUUUUUUUUUUUUUUUUUUUUUUUUUUU 4#
b00000000000000000000000000000000 5#
06#
17#
08#
bUUUUUUUUUUUUUUUUUUUUUUUUUUUUUUUU 9#
b00000000000000000000000000000000 :#
0;#
1<#
0=#
bUUUUUUUUUUUUUUUUUUUUUUUUUUUUUUUU >#
b00000000000000000000000000000000 ?#
0@#
1A#
0B#
bUUUUUUUUUUUUUUUUUUUUUUUUUUUUUUUU C#
b00000000000000000000000000000000 D#
0E#
1F#
0G#
bUUUUUUUUUUUUUUUUUUUUUUUUUUUUUUUU H#
b00000000000000000000000000000000 I#
0J#
1K#
0L#
bUUUUUUUUUUUUUUUUUUUUUUUUUUUUUUUU M#
b00000000000000000000000000000000 N#
0O#
1P#
0Q#
bUUUUUUUUUUUUUUUUUUUUUUUUUUUUUUUU R#
b00000000000000000000000000000000 S#
0T#
1U#
0V#
bUUUUUUUUUUUUUUUUUUUUUUUUUUUUUUUU W#
b00000000000000000000000000000000 X#
b00000000000000000000000000000000 Y#
b00000000000000000000000000000000 Z#
b00000000000000000000000000000000 [#
1\#
b0000000000000000000000000000000000000000000000000000000000000000 ]#
0^#
1_#
b10001111101001000000000000000000 `#
#10000
b11110000001111110000000000000000 >
b00000000000000000000000000000000 E
#100000
0.
13
0@
#200000
b00000000010000000000000000000100 !
b00100111101001010000000000000100 "
b00000000010000000000000000000100 #
b00100111101001010000000000000100 $
b00000000000000000000000000000100 &
bZZZZZZZZZZZZZZZZZZZZZZZZZZZZZZZZ '
b00000000010000000000000000000100 (
b00100111101001010000000000000100 )
1*
1,
1.
03
05
18
1:
b00000000010000000000000000000100 <
b00100111101001010000000000000100 =
1@
b00000000010000000000000000000100 C
b00100111101001010000000000000100 D
0H
b00000000000000000000000000000100 L
b00100111101001010000000000000100 M
bZZZZZZZZZZZZZZZZZZZZZZZZZZZZZZZZ N
b00100111101001010000000000000100 O
b00100111101001010000000000000100 S
b00000000000000000000000000000100 T
bZZZZZZZZZZZZZZZZZZZZZZZZZZZZZZZZ U
b00100111101001010000000000000100 V
b00000000000000000000000000000100 [
b00000000000000000000000000000100 ^
b00000000000000000000000000000100 _
b00000000000000000000000000000100 `
b00101 a
0c
b00101 m
b00101 n
b00000000000000000000000000000100 o
b00000000000000000000000000100000 r
b00000000000000000000000000000100 v
b00000000000000000000000000000100 {
b00000000000000000000000000000100 #"
b00000000000000000000000000000100 ("
0,"
b00000000000000000000000000000100 -"
11"
b00000000000000000000000000000100 2"
b00000000000000000000000000000100 7"
b00000000000000000000000000000100 <"
b00000000000000000000000000000100 A"
b00000000000000000000000000000100 F"
b00000000000000000000000000000100 K"
b00000000000000000000000000000100 P"
b00000000000000000000000000000100 U"
b00000000000000000000000000000100 Z"
b00000000000000000000000000000100 _"
b00000000000000000000000000000100 d"
b00000000000000000000000000000100 i"
b00000000000000000000000000000100 n"
b00000000000000000000000000000100 s"
b00000000000000000000000000000100 x"
b00000000000000000000000000000100 }"
b00000000000000000000000000000100 %#
b00000000000000000000000000000100 *#
b00000000000000000000000000000100 /#
b00000000000000000000000000000100 4#
b00000000000000000000000000000100 9#
b00000000000000000000000000000100 >#
b00000000000000000000000000000100 C#
b00000000000000000000000000000100 H#
b00000000000000000000000000000100 M#
b00000000000000000000000000000100 R#
b00000000000000000000000000000100 W#
b00000000000000000000000000000100 Z#
b00000000000000000000000000000100 [#
0\#
b0000000000000000000000000000000000000000000000000000000000000100 ]#
b00100111101001010000000000000100 `#
#210000
b11110000001111110000000000000100 >
b00000000000000000000000000000100 E
#300000
0.
13
0@
#400000
b00000000010000000000000000001000 !
b00100100101001100000000000000100 "
b00000000010000000000000000001000 #
b00100100101001100000000000000100 $
b00000000010000000000000000001000 (
b00100100101001100000000000000100 )
1.
03
b00000000010000000000000000001000 <
b00100100101001100000000000000100 =
1@
b00000000010000000000000000001000 C
b00100100101001100000000000000100 D
b00100100101001100000000000000100 M
b00100100101001100000000000000100 O
b00100100101001100000000000000100 S
b00100100101001100000000000000100 V
b00110 a
b00101 l
b00110 m
b00110 n
b00000000000000000000000001000000 r
01"
16"
b00100100101001100000000000000100 `#
#410000
b11110000001111110000000000001000 >
b00000000000000000000000000001000 E
#500000
0.
13
0@
#600000
b00000000010000000000000000001100 !
b00000000000001000001000010000000 "
b00000000010000000000000000001100 #
b00000000000001000001000010000000 $
b00000000000000000001000010000000 &
b00000000010000000000000000001100 (
b00000000000001000001000010000000 )
1.
03
b00000000010000000000000000001100 <
b00000000000001000001000010000000 =
1@
b00000000010000000000000000001100 C
b00000000000001000001000010000000 D
b00000000000000000001000010000000 L
b00000000000001000001000010000000 M
b00000000000001000001000010000000 O
b00000000000001000001000010000000 S
b00000000000000000001000010000000 T
b00000000000001000001000010000000 V
b00000000000000000001000010000000 [
b00000000000000000001000010000000 ^
b00000000000000000001000010000000 _
b00000000000000000001000010000000 `
b00100 a
b00000 l
b00100 m
b00100 n
b00000000000000000001000010000000 o
b00000000000000000000000000010000 r
b00000000000000000001000010000000 v
b00000000000000000001000010000000 {
b00000000000000000001000010000000 #"
b00000000000000000001000010000000 ("
1,"
b00000000000000000001000010000000 -"
b00000000000000000001000010000000 2"
06"
b00000000000000000001000010000000 7"
b00000000000000000001000010000000 <"
b00000000000000000001000010000000 A"
b00000000000000000001000010000000 F"
b00000000000000000001000010000000 K"
b00000000000000000001000010000000 P"
b00000000000000000001000010000000 U"
b00000000000000000001000010000000 Z"
b00000000000000000001000010000000 _"
b00000000000000000001000010000000 d"
b00000000000000000001000010000000 i"
b00000000000000000001000010000000 n"
b00000000000000000001000010000000 s"
b00000000000000000001000010000000 x"
b00000000000000000001000010000000 }"
b00000000000000000001000010000000 %#
b00000000000000000001000010000000 *#
b00000000000000000001000010000000 /#
b00000000000000000001000010000000 4#
b00000000000000000001000010000000 9#
b00000000000000000001000010000000 >#
b00000000000000000001000010000000 C#
b00000000000000000001000010000000 H#
b00000000000000000001000010000000 M#
b00000000000000000001000010000000 R#
b00000000000000000001000010000000 W#
b00000000000000000001000010000000 Z#
b00000000000000000001000010000000 [#
b0000000000000000000000000000000000000000000000000001000010000000 ]#
b00000000000001000001000010000000 `#
#610000
b11110000001111110000000000001100 >
b00000000000000000000000000001100 E
#700000
0.
13
0@
#800000
b00000000010000000000000000010000 !
b00000000110000100011000000100001 "
b00000000010000000000000000010000 #
b00000000110000100011000000100001 $
b00000000000000000000000000000000 &
b00000000010000000000000000010000 (
b00000000110000100011000000100001 )
1.
03
b00000000010000000000000000010000 <
b00000000110000100011000000100001 =
1@
b00000000010000000000000000010000 C
b00000000110000100011000000100001 D
b00000000000000000000000000000000 L
b00000000110000100011000000100001 M
b00000000110000100011000000100001 O
b00000000110000100011000000100001 S
b00000000000000000000000000000000 T
b00000000110000100011000000100001 V
b00000000000000000000000000000000 [
b00000000000000000011000000100001 ^
b00000000000000000000000000000000 _
b00000000000000000000000000000000 `
b00110 a
1b
1c
b00110 l
b00010 m
b00110 n
b00000000000000000000000000000000 o
b00000000000000000000000001000000 r
b00000000000000000000000000000000 v
b00000000000000000000000000000000 {
0""
b00000000000000000000000000000000 #"
b00000000000000000000000000000000 ("
0,"
b00000000000000000000000000000000 -"
b00000000000000000000000000000000 2"
16"
b00000000000000000000000000000000 7"
b00000000000000000000000000000000 <"
b00000000000000000000000000000000 A"
b00000000000000000000000000000000 F"
b00000000000000000000000000000000 K"
b00000000000000000000000000000000 P"
b00000000000000000000000000000000 U"
b00000000000000000000000000000000 Z"
b00000000000000000000000000000000 _"
b00000000000000000000000000000000 d"
b00000000000000000000000000000000 i"
b00000000000000000000000000000000 n"
b00000000000000000000000000000000 s"
b00000000000000000000000000000000 x"
b00000000000000000000000000000000 }"
b00000000000000000000000000000000 %#
b00000000000000000000000000000000 *#
b00000000000000000000000000000000 /#
b00000000000000000000000000000000 4#
b00000000000000000000000000000000 9#
b00000000000000000000000000000000 >#
b00000000000000000000000000000000 C#
b00000000000000000000000000000000 H#
b00000000000000000000000000000000 M#
b00000000000000000000000000000000 R#
b00000000000000000000000000000000 W#
b00000000000000000000000000000000 Z#
b00000000000000000000000000000000 [#
1\#
b0000000000000000000000000000000000000000000000000000000000000000 ]#
b00000000110000100011000000100001 `#
#810000
b11110000001111110000000000010000 >
b00000000000000000000000000010000 E
#900000
0.
13
0@
#1000000
b00000000010000000000000000010100 !
b00001100000100000000000000001001 "
b00000000010000000000000000010100 #
b00001100000100000000000000001001 $
b00000000000000000000000000001001 &
b00000000010000000000000000010100 (
b00001100000100000000000000001001 )
1.
03
b00000000010000000000000000010100 <
b00001100000100000000000000001001 =
1@
b00000000010000000000000000010100 C
b00001100000100000000000000001001 D
b00000000000000000000000000001001 L
b00001100000100000000000000001001 M
b00001100000100000000000000001001 O
b00001100000100000000000000001001 S
b00000000000000000000000000001001 T
b00001100000100000000000000001001 V
b00000000010000000000000000100100 W
b00000000000000000000000000001001 [
b00000000000000000000000000001001 ^
b00000000000000000000000000001001 _
b00000000010000000000000000000100 `
b11111 a
0b
0c
b00000000010000000000000000100100 g
b00000 l
b10000 m
b11111 n
b00000000010000000000000000000100 o
b10000000000000000000000000000000 r
b00000000010000000000000000000100 v
b00000000010000000000000000000100 {
b00000000010000000000000000000100 #"
b00000000010000000000000000000100 ("
b00000000010000000000000000000100 -"
b00000000010000000000000000000100 2"
06"
b00000000010000000000000000000100 7"
b00000000010000000000000000000100 <"
b00000000010000000000000000000100 A"
b00000000010000000000000000000100 F"
b00000000010000000000000000000100 K"
b00000000010000000000000000000100 P"
b00000000010000000000000000000100 U"
b00000000010000000000000000000100 Z"
b00000000010000000000000000000100 _"
b00000000010000000000000000000100 d"
b00000000010000000000000000000100 i"
b00000000010000000000000000000100 n"
b00000000010000000000000000000100 s"
b00000000010000000000000000000100 x"
b00000000010000000000000000000100 }"
b00000000010000000000000000000100 %#
b00000000010000000000000000000100 *#
b00000000010000000000000000000100 /#
b00000000010000000000000000000100 4#
b00000000010000000000000000000100 9#
b00000000010000000000000000000100 >#
b00000000010000000000000000000100 C#
b00000000010000000000000000000100 H#
b00000000010000000000000000000100 M#
b00000000010000000000000000000100 R#
1V#
b00000000010000000000000000000100 W#
b00000000000000000000000000001001 Z#
b00000000000000000000000000001001 [#
0\#
b0000000000000000000000000000000000000000000000000000000000001001 ]#
b00001100000100000000000000001001 `#
#1010000
b11110000001111110000000000010100 >
b00000000000000000000000000010100 E
#1100000
0.
13
0@
#1200000
b00000000010000000000000000011000 !
b00000000000000000000000000000000 "
b00000000010000000000000000011000 #
b00000000000000000000000000000000 $
b00000000000000000000000000000000 &
b00000000010000000000000000011000 (
b00000000000000000000000000000000 )
1.
03
b00000000010000000000000000011000 <
b00000000000000000000000000000000 =
1@
b00000000010000000000000000011000 C
b00000000000000000000000000000000 D
b00000000000000000000000000000000 L
b00000000000000000000000000000000 M
b00000000000000000000000000000000 O
b00000000000000000000000000000000 S
b00000000000000000000000000000000 T
b00000000000000000000000000000000 V
b00000000010000000000000000000100 W
b00000000000000000000000000000000 [
b00000000000000000000000000000000 ^
b00000000000000000000000000000000 _
b00000000000000000000000000000000 `
b00000 a
1c
b00000000010000000000000000000100 g
b00000 m
b00000 n
b00000000000000000000000000000000 o
b00000000000000000000000000000000 r
b00000000000000000000000000000000 v
b00000000000000000000000000000000 {
b00000000000000000000000000000000 #"
b00000000000000000000000000000000 ("
b00000000000000000000000000000000 -"
b00000000000000000000000000000000 2"
b00000000000000000000000000000000 7"
b00000000000000000000000000000000 <"
b00000000000000000000000000000000 A"
b00000000000000000000000000000000 F"
b00000000000000000000000000000000 K"
b00000000000000000000000000000000 P"
b00000000000000000000000000000000 U"
b00000000000000000000000000000000 Z"
b00000000000000000000000000000000 _"
b00000000000000000000000000000000 d"
b00000000000000000000000000000000 i"
b00000000000000000000000000000000 n"
b00000000000000000000000000000000 s"
b00000000000000000000000000000000 x"
b00000000000000000000000000000000 }"
b00000000000000000000000000000000 %#
b00000000000000000000000000000000 *#
b00000000000000000000000000000000 /#
b00000000000000000000000000000000 4#
b00000000000000000000000000000000 9#
b00000000000000000000000000000000 >#
b00000000000000000000000000000000 C#
b00000000000000000000000000000000 H#
b00000000000000000000000000000000 M#
b00000000000000000000000000000000 R#
0V#
b00000000000000000000000000000000 W#
b00000000000000000000000000000000 Z#
b00000000000000000000000000000000 [#
1\#
b0000000000000000000000000000000000000000000000000000000000000000 ]#
b00000000000000000000000000000000 `#
#1210000
b11110000001111110000000000011000 >
b00000000000000000000000000011000 E
#1300000
0.
13
0@
